2a_prod_cons_fifo/traces.vcd
$date
     May 22, 2023       19:53:09
$end

$version
 SystemC 2.3.3-Accellera --- May  8 2023 23:53:52
$end

$timescale
     1 ps
$end

$scope module SystemC $end
$var wire    1  aaaaa  clk       $end
$var wire    1  aaaab  data_valid       $end
$var wire    1  aaaac  fetch       $end
$var wire   32  aaaad  fifo_fill_level [31:0]  $end
$var wire    1  aaaae  send       $end
$var wire    1  aaaaf  fifo_empty       $end
$var wire    1  aaaag  rd_en       $end
$var wire    8  aaaah  fifo_out [7:0]  $end
$var wire    1  aaaai  fifo_full       $end
$var wire    1  aaaaj  wr_en       $end
$var wire    8  aaaak  fifo_in [7:0]  $end
$upscope $end
$enddefinitions  $end

$comment
All initial values are dumped below at time 0 sec = 0 timescale units.
$end

$dumpvars
1aaaaa
0aaaab
0aaaac
b0 aaaad
0aaaae
1aaaaf
0aaaag
b11111111 aaaah
0aaaai
0aaaaj
b11111111 aaaak
$end

#50000
0aaaaa

#100000
1aaaaa

#150000
0aaaaa

#200000
1aaaaa

#250000
0aaaaa

#300000
1aaaaa
1aaaae
1aaaaj
b0 aaaak

#350000
0aaaaa

#400000
1aaaaa
b1 aaaad
0aaaae
0aaaaf
0aaaaj

#450000
0aaaaa

#500000
1aaaaa
1aaaac
1aaaag

#550000
0aaaaa

#600000
1aaaaa
1aaaab
0aaaac
b0 aaaad
1aaaae
1aaaaf
0aaaag
b0 aaaah
1aaaaj
b1 aaaak

#650000
0aaaaa

#700000
1aaaaa
0aaaab
b1 aaaad
0aaaae
0aaaaf
0aaaaj

#750000
0aaaaa

#800000
1aaaaa
1aaaae
1aaaaj
b10 aaaak

#850000
0aaaaa

#900000
1aaaaa
b10 aaaad
0aaaae
0aaaaj

#950000
0aaaaa

#1000000
1aaaaa

#1050000
0aaaaa

#1100000
1aaaaa
1aaaac
1aaaae
1aaaag
1aaaaj
b11 aaaak

#1150000
0aaaaa

#1200000
1aaaaa
1aaaab
0aaaac
0aaaae
0aaaag
b1 aaaah
0aaaaj

#1250000
0aaaaa

#1300000
1aaaaa
0aaaab

#1350000
0aaaaa

#1400000
1aaaaa
1aaaae
1aaaaj
b100 aaaak

#1450000
0aaaaa

#1500000
1aaaaa
b11 aaaad
b101 aaaak

#1550000
0aaaaa

#1600000
1aaaaa
1aaaac
b100 aaaad
1aaaag
b110 aaaak

#1650000
0aaaaa

#1700000
1aaaaa
1aaaab
0aaaac
0aaaag
b10 aaaah
b111 aaaak

#1750000
0aaaaa

#1800000
1aaaaa
0aaaab
b101 aaaad
1aaaai
b1000 aaaak

#1850000
0aaaaa

#1900000
1aaaaa

#1950000
0aaaaa

#2000000
1aaaaa
1aaaac
1aaaag

#2050000
0aaaaa

#2100000
1aaaaa
1aaaab
b100 aaaad
b11 aaaah
0aaaai

#2150000
0aaaaa

#2200000
1aaaaa
0aaaac
0aaaag
b100 aaaah
b1001 aaaak

#2250000
0aaaaa

#2300000
1aaaaa
0aaaab
1aaaac
b101 aaaad
1aaaag
1aaaai
b1010 aaaak

#2350000
0aaaaa

#2400000
1aaaaa
1aaaab
b100 aaaad
0aaaae
b101 aaaah
0aaaai
0aaaaj

#2450000
0aaaaa

#2500000
1aaaaa
b11 aaaad
1aaaae
b110 aaaah
1aaaaj

#2550000
0aaaaa

#2600000
1aaaaa
0aaaae
b111 aaaah
0aaaaj

#2650000
0aaaaa

#2700000
1aaaaa
b10 aaaad
b1000 aaaah

#2750000
0aaaaa

#2800000
1aaaaa
b1 aaaad
b1001 aaaah

#2850000
0aaaaa

#2900000
1aaaaa
b0 aaaad
1aaaaf
b1010 aaaah

#2950000
0aaaaa

#3000000
1aaaaa
0aaaab

#3050000
0aaaaa

#3100000
1aaaaa

#3150000
0aaaaa

#3200000
1aaaaa

#3250000
0aaaaa

#3300000
1aaaaa
0aaaac
0aaaag

#3350000
0aaaaa

#3400000
1aaaaa

#3450000
0aaaaa

#3500000
1aaaaa
1aaaac
1aaaag

#3550000
0aaaaa

#3600000
1aaaaa
0aaaac
0aaaag

#3650000
0aaaaa

#3700000
1aaaaa

#3750000
0aaaaa

#3800000
1aaaaa

#3850000
0aaaaa

#3900000
1aaaaa

#3950000
0aaaaa

#4000000
1aaaaa
1aaaac
1aaaag

#4050000
0aaaaa

#4100000
1aaaaa
0aaaac
0aaaag

#4150000
0aaaaa

#4200000
1aaaaa

#4250000
0aaaaa

#4300000
1aaaaa

#4350000
0aaaaa

#4400000
1aaaaa

#4450000
0aaaaa

#4500000
1aaaaa

#4550000
0aaaaa

#4600000
1aaaaa
1aaaac
1aaaae
1aaaag
1aaaaj
b1011 aaaak

#4650000
0aaaaa

#4700000
1aaaaa
0aaaac
b1 aaaad
0aaaae
0aaaaf
0aaaag
0aaaaj

#4750000
0aaaaa

#4800000
1aaaaa

#4850000
0aaaaa

#4900000
1aaaaa
1aaaae
1aaaaj
b1100 aaaak

